module gitlab.com/backend109/evermos-test

go 1.16

require (
	github.com/alecthomas/template v0.0.0-20190718012654-fb15b899a751
	github.com/go-playground/validator/v10 v10.7.0
	github.com/labstack/echo/v4 v4.4.0
	github.com/leodido/go-urn v1.2.1 // indirect
	github.com/lib/pq v1.10.2
	github.com/spf13/viper v1.8.1
	github.com/stretchr/testify v1.7.0
	github.com/swaggo/echo-swagger v1.1.0
	github.com/swaggo/swag v1.7.0
	go.uber.org/zap v1.18.1
)
